Chapter 1 Data Import and Export | Data Management with R
…
## 
## -- Column specification --------------------------------------------------------
## cols(
##   earn = col_double(),
##   height = col_double(),
##   sex = col_character(),
##   ed = col_double(),
##   age = col_double(),
##   race = col_character()
## )

heights

## # A tibble: 1,192 x 6
##     earn height sex       ed   age race    
##    <dbl>  <dbl> <chr>  <dbl> <dbl> <chr>   
##  1 50000   74.4 male      16    45 white   
##  2 60000   65.5 female    16    58 white   
##  3 30000   63.6 female    16    29 white   
##  4 50000   63.1 female    16    91 other   
##  5 51000   63.4 female    17    39 white   
##  6  9000   64.4 female    15    26 white   
##  7 29000   61.7 female    12    49 white   
##  8 32000   72.7 male      17    46 white   
##  9  2000   72.0 male      15    21 hispanic
## 10 27000   72.2 male      12    26 white   
## # ... with 1,182 more rows
…
## Warning: 1000 parsing failures.
##  row col           expected     actual                                                             file
## 1001   y 1/0/T/F/TRUE/FALSE 2015-01-16 'C:/Program Files/R/R-4.0.3/library/readr/extdata/challenge.csv'
## 1002   y 1/0/T/F/TRUE/FALSE 2018-05-18 'C:/Program Files/R/R-4.0.3/library/readr/extdata/challenge.csv'
## 1003   y 1/0/T/F/TRUE/FALSE 2015-09-05 'C:/Program Files/R/R-4.0.3/library/readr/extdata/challenge.csv'
## 1004   y 1/0/T/F/TRUE/FALSE 2012-11-28 'C:/Program Files/R/R-4.0.3/library/readr/extdata/challenge.csv'
## 1005   y 1/0/T/F/TRUE/FALSE 2020-01-13 'C:/Program Files/R/R-4.0.3/library/readr/extdata/challenge.csv'
## .... ... .................. .......... ................................................................
## See problems(...) for more details.

problems(challenge)

## # A tibble: 1,000 x 5
##      row col   expected        actual   file                                    
##    <int> <chr> <chr>           <chr>    <chr>                                   
##  1  1001 y     1/0/T/F/TRUE/F~ 2015-01~ 'C:/Program Files/R/R-4.0.3/library/rea~
##  2  1002 y     1/0/T/F/TRUE/F~ 2018-05~ 'C:/Program Files/R/R-4.0.3/library/rea~
##  3  1003 y     1/0/T/F/TRUE/F~ 2015-09~ 'C:/Program Files/R/R-4.0.3/library/rea~
##  4  1004 y     1/0/T/F/TRUE/F~ 2012-11~ 'C:/Program Files/R/R-4.0.3/library/rea~
##  5  1005 y     1/0/T/F/TRUE/F~ 2020-01~ 'C:/Program Files/R/R-4.0.3/library/rea~
##  6  1006 y     1/0/T/F/TRUE/F~ 2016-04~ 'C:/Program Files/R/R-4.0.3/library/rea~
##  7  1007 y     1/0/T/F/TRUE/F~ 2011-05~ 'C:/Program Files/R/R-4.0.3/library/rea~
##  8  1008 y     1/0/T/F/TRUE/F~ 2020-07~ 'C:/Program Files/R/R-4.0.3/library/rea~
##  9  1009 y     1/0/T/F/TRUE/F~ 2011-04~ 'C:/Program Files/R/R-4.0.3/library/rea~
## 10  1010 y     1/0/T/F/TRUE/F~ 2010-05~ 'C:/Program Files/R/R-4.0.3/library/rea~
## # ... with 990 more rows
…
매우 큰 파일을 읽는 경우, n_max 를 10,000 또는 100,000 과 같이 작은 숫자로 설정할 수 있다. 이렇게 하면 일반적인 문제를 해결하는 동시에 반복작업을 가속화할 수 있다.

파싱에 중대한 문제가 있는 경우에는 read_lines() 을 이용하여 라인으로 이루어진 문자형 벡터로 읽거나 read_file() 을 이용하여 길이가 1인 문자형 벡터로 읽는 것이 더 쉬울 수 있다. 그런 다음 나중에 배울 문자열 파싱 방법을 사용하여 좀 더 특이한 포맷을 파싱하면 된다.

1.2 Data Export

1.2.1 write_csv()

write_csv(challenge, "data1/out/challenge.csv")

challenge

## # A tibble: 2,000 x 2
##        x y         
##    <dbl> <date>    
##  1   404 NA        
##  2  4172 NA        
##  3  3004 NA        
##  4   787 NA        
##  5    37 NA        
##  6  2332 NA        
##  7  2489 NA        
##  8  1449 NA        
##  9  3665 NA        
## 10  3863 NA        
## # ... with 1,990 more rows
…
## Warning: 1000 parsing failures.
##  row col           expected     actual                        file
## 1001   y 1/0/T/F/TRUE/FALSE 2015-01-16 'data1/out/challenge-2.csv'
## 1002   y 1/0/T/F/TRUE/FALSE 2018-05-18 'data1/out/challenge-2.csv'
## 1003   y 1/0/T/F/TRUE/FALSE 2015-09-05 'data1/out/challenge-2.csv'
## 1004   y 1/0/T/F/TRUE/FALSE 2012-11-28 'data1/out/challenge-2.csv'
## 1005   y 1/0/T/F/TRUE/FALSE 2020-01-13 'data1/out/challenge-2.csv'
## .... ... .................. .......... ...........................
## See problems(...) for more details.

## # A tibble: 2,000 x 2
##        x y    
##    <dbl> <lgl>
##  1   404 NA   
##  2  4172 NA   
##  3  3004 NA   
##  4   787 NA   
##  5    37 NA   
##  6  2332 NA   
##  7  2489 NA   
##  8  1449 NA   
##  9  3665 NA   
## 10  3863 NA   
## # ... with 1,990 more rows

1.2.2 write_rds()

write_rds(challenge, "data1/out/challenge.rds")
read_rds("data1/out/challenge.rds")

## # A tibble: 2,000 x 2
##        x y         
##    <dbl> <date>    
##  1   404 NA        
##  2  4172 NA        
##  3  3004 NA        
##  4   787 NA        
##  5    37 NA        
##  6  2332 NA        
##  7  2489 NA        
##  8  1449 NA        
##  9  3665 NA        
## 10  3863 NA        
## # ... with 1,990 more rows

RDS, Rdata, Rda의 차이점에 대하여 알아보자…

R 데이터 용량 줄이기

1.2.3 write_feather()

library(feather)
write_feather(challenge, "data1/out/challenge.feather")
read_feather("data1/out/challenge.feather")

## # A tibble: 2,000 x 2
##        x y         
##    <dbl> <date>    
##  1   404 NA        
##  2  4172 NA        
##  3  3004 NA        
##  4   787 NA        
##  5    37 NA        
##  6  2332 NA        
##  7  2489 NA        
##  8  1449 NA        
##  9  3665 NA        
## 10  3863 NA        
## # ... with 1,990 more rows
…
인수

가장 중요한 인수는 x (저장할 데이터프레임)와 path (그 데이터프레임을 저장할 위치)이다.

결측값을 지정하는 인수, na= 와 기존 파일에 첨부할지를 지정하는 인수 append= 도 있다.

write_csv(challenge, "data1/out/challenge.csv")

1.2.4 read_csv()와 read_rds()의 비교

CSV 로 저장하면 데이터의 유형 정보가 없어진다는 것에 유의하라. 즉, plain text 파일로 저장이 된다.

challenge

## # A tibble: 2,000 x 2
##        x y         
##    <dbl> <date>    
##  1   404 NA        
##  2  4172 NA        
##  3  3004 NA        
##  4   787 NA        
##  5    37 NA        
##  6  2332 NA        
##  7  2489 NA        
##  8  1449 NA        
##  9  3665 NA        
## 10  3863 NA        
## # ... with 1,990 more rows
…
