3.1 Data Cleansing | tidyverse를 이용한 데이터 관리
…
## -- Column specification --------------------------------------------------------
## cols(
##   .default = col_double(),
##   hospital = col_character(),
##   docid = col_character(),
##   dis_date = col_character(),
##   sex = col_character(),
##   familyhx = col_character(),
##   smokinghx = col_character(),
##   cancerstage = col_character(),
##   wbc = col_character()
## )
## i Use `spec()` for the full column specifications.

## # A tibble: 120 x 24
##   hospital hospid docid dis_date sex     age  test1 test2  pain tumorsize   co2
##   <chr>     <dbl> <chr> <chr>    <chr> <dbl>  <dbl> <dbl> <dbl>     <dbl> <dbl>
## 1 UCLA          1 1-1   6-Sep-09 male   65.0   3.70 8.09      4      68.0  1.53
## 2 UCLA          1 1-1   7-Jan-11 fema~  53.9   2.63 0.803     2      64.7  1.68
## 3 UCLA          1 1-1   4-Sep-10 male   41.4 -99    2.13      3      86.4  1.45
## # ... with 117 more rows, and 13 more variables: wound <dbl>, mobility <dbl>,
## #   ntumors <dbl>, remission <dbl>, lungcapacity <dbl>, married <dbl>,
## #   familyhx <chr>, smokinghx <chr>, cancerstage <chr>, lengthofstay <dbl>,
## #   wbc <chr>, rbc <dbl>, bmi <dbl>
…
# change all impossible age values to NA 
# assume all adults in this dataset
d$age[d$age<18 | d$age>120] <- NA

# remember to use quotes for character variables
d$sex[d$sex == "12.2"] <- NA

이제 모든 -99, -98 그리고 not assessed 값들을 모두 NA로 바꿔보자.

d[d==-99] <- NA
d[d==-98] <- NA
d[d=="not assessed"] <- NA
d

## # A tibble: 120 x 24
##   hospital hospid docid dis_date sex     age test1 test2  pain tumorsize   co2
##   <chr>     <dbl> <chr> <chr>    <chr> <dbl> <dbl> <dbl> <dbl>     <dbl> <dbl>
## 1 UCLA          1 1-1   6-Sep-09 male   65.0  3.70 8.09      4      68.0  1.53
## 2 UCLA          1 1-1   7-Jan-11 fema~  53.9  2.63 0.803     2      64.7  1.68
## 3 UCLA          1 1-1   4-Sep-10 male   41.4 NA    2.13      3      86.4  1.45
## # ... with 117 more rows, and 13 more variables: wound <dbl>, mobility <dbl>,
## #   ntumors <dbl>, remission <dbl>, lungcapacity <dbl>, married <dbl>,
## #   familyhx <chr>, smokinghx <chr>, cancerstage <chr>, lengthofstay <dbl>,
## #   wbc <chr>, rbc <dbl>, bmi <dbl>
…
