3.2 결측치(Missing Values) 처리 | tidyverse를 이용한 데이터 관리
…
그룹 ‘a’의 평균은 3, 그룹’b’의 평균은 6이다.

3.2.5.2.6.3 결측치를 그룹별 평균으로 대체하기

그러면 4번째 행에 있는 그룹 ‘a’의’val’ 칼럼 결측값을 그룹 ‘a’의 평균 3으로 대체(replace) 또는 채워넣기(fill in)를 하면 다음과 같다.
그리고 8번째 행에 있는 그룹’b‘의’val’ 칼럼 결측값을 그룹 ’b’의 평균 6으로 대체하면 다음과 같다.

df %>% 
   group_by(grp) %>% 
   mutate(val = ifelse(is.na(val), mean(val, na.rm=TRUE), val))

## # A tibble: 10 x 2
## # Groups:   grp [2]
##   grp     val
##   <chr> <dbl>
## 1 a         1
## 2 a         2
## 3 a         3
## # ... with 7 more rows
…
