9.4 시간 범위 | tidyverse를 이용한 데이터 관리
…
# 일광절약제
one_pm + ddays(1)

## [1] "2016-03-13 14:00:00 EDT"

one_pm + days(1)

## [1] "2016-03-13 13:00:00 EDT"

이제 피리어드형을 사용해서 비행 날짜에 관련된 문제를 해결해보자. 일부 항공편은 뉴욕시에서 출발하기 전에 목적지에 도착한 것으로 보여진다.

flights_dt %>% 
  filter(arr_time < dep_time) 

## # A tibble: 10,633 x 9
##   origin dest  dep_delay arr_delay dep_time            sched_dep_time     
##   <chr>  <chr>     <dbl>     <dbl> <dttm>              <dttm>             
## 1 EWR    BQN           9        -4 2013-01-01 19:29:00 2013-01-01 19:20:00
## 2 JFK    DFW          59        NA 2013-01-01 19:39:00 2013-01-01 18:40:00
## 3 EWR    TPA          -2         9 2013-01-01 20:58:00 2013-01-01 21:00:00
## # ... with 10,630 more rows, and 3 more variables: arr_time <dttm>,
## #   sched_arr_time <dttm>, air_time <dbl>
…
