9.2 날짜/시간 생성하기 | tidyverse를 이용한 데이터 관리
…
시간대를 제공하여 날짜로부터 데이트-타임형을 강제 생성할 수도 있다.

ymd(20170131, tz = "UTC")

## [1] "2017-01-31 UTC"

9.2.2 개별 구성요소로 생성

때로는 문자열이 아니라 데이트-타임형의 개별 구성요소들이 여러 열에 걸쳐 있는 경우가 있을 것이다. flights 데이터에 있는 것이 그렇다.

flights %>% 
  select(year, month, day, hour, minute)

## # A tibble: 336,776 x 5
##    year month   day  hour minute
##   <int> <int> <int> <dbl>  <dbl>
## 1  2013     1     1     5     15
## 2  2013     1     1     5     29
## 3  2013     1     1     5     40
## # ... with 336,773 more rows

이러한 입력으로 날짜/시간을 생성하려면 데이트형은 make_date() 를, 데이트-타임형은 make_datetime() 를 쓰면 된다.

flights %>% 
  select(year, month, day, hour, minute) %>% 
  mutate(departure = make_datetime(year, month, day, hour, minute))

## # A tibble: 336,776 x 6
##    year month   day  hour minute departure          
##   <int> <int> <int> <dbl>  <dbl> <dttm>             
## 1  2013     1     1     5     15 2013-01-01 05:15:00
## 2  2013     1     1     5     29 2013-01-01 05:29:00
## 3  2013     1     1     5     40 2013-01-01 05:40:00
## # ... with 336,773 more rows
…
flights_dt <- flights %>% 
  filter(!is.na(dep_time), !is.na(arr_time)) %>% 
  mutate(
    dep_time = make_datetime_100(year, month, day, dep_time),
    arr_time = make_datetime_100(year, month, day, arr_time),
    sched_dep_time = make_datetime_100(year, month, day, sched_dep_time),
    sched_arr_time = make_datetime_100(year, month, day, sched_arr_time)
  ) %>% 
  select(origin, dest, ends_with("delay"), ends_with("time"))

flights_dt

## # A tibble: 328,063 x 9
##   origin dest  dep_delay arr_delay dep_time            sched_dep_time     
##   <chr>  <chr>     <dbl>     <dbl> <dttm>              <dttm>             
## 1 EWR    IAH           2        11 2013-01-01 05:17:00 2013-01-01 05:15:00
## 2 LGA    IAH           4        20 2013-01-01 05:33:00 2013-01-01 05:29:00
## 3 JFK    MIA           2        33 2013-01-01 05:42:00 2013-01-01 05:40:00
## # ... with 328,060 more rows, and 3 more variables: arr_time <dttm>,
## #   sched_arr_time <dttm>, air_time <dbl>
…
