2 Dataframe, Tibble and Factor | Data Management with R
…
tibble()은 입력 데이터의 데이터 타입을 변경하지 않는다.

(즉, stringsAsFactors = FALSE이 필요하지 않다!).

문자형 변수를 이용하는데 보다 편리하다.

letters

##  [1] "a" "b" "c" "d" "e" "f" "g" "h" "i" "j" "k" "l" "m" "n" "o" "p" "q" "r" "s"
## [20] "t" "u" "v" "w" "x" "y" "z"

tibble(x = letters)

## # A tibble: 26 x 1
##    x    
##    <chr>
##  1 a    
##  2 b    
##  3 c    
##  4 d    
##  5 e    
##  6 f    
##  7 g    
##  8 h    
##  9 i    
## 10 j    
## # ... with 16 more rows
…
하나의 tidy 데이터 프레임에 많은 정제되지 않은 데이터를 입력할 때는 문제가 될 수 있다.

2.2.3 티블과 데이터 프레임의 비교

티블과 데이터 프레임 사이에는 3가지의 중요한 차이점이 있다 : 화면 출력, 서브세팅, 자동 반복 원칙 등

2.2.3.1 화면 출력(Printing)

티블을 출력하면, 처음의 10개 행과 한 화면에 맞게 모든 열을 보여준다.

또한 각 열의 데이터 타입을 요약해서 보여주고, 폰트 스타일과 강조를 위한 색상을 사용한다.

tibble(x = -5:1000)

## # A tibble: 1,006 x 1
##        x
##    <int>
##  1    -5
##  2    -4
##  3    -3
##  4    -2
##  5    -1
##  6     0
##  7     1
##  8     2
##  9     3
## 10     4
## # ... with 996 more rows
…
그러나 때로는 기본 디스플레이보다 더 많은 출력이 필요하곤 한다.

도움이 되는 몇 가지 옵션이 있다.

options 를 설정하여 기본 출력 동작을 제어할 수도 있다.

options(tibble.print_max = n, tibble.print_min = m): n 행 이상이 있는 경우, m행만 출력한다.

모든 행을 표시하려면 options(dplyr.print_min = Inf) 을 사용하라.

# 최소 10줄
options(tibble.print_max = 20, tibble.print_min = 10)
tibble(a = 1:26, b = letters) 

## # A tibble: 26 x 2
##        a b    
##    <int> <chr>
##  1     1 a    
##  2     2 b    
##  3     3 c    
##  4     4 d    
##  5     5 e    
##  6     6 f    
##  7     7 g    
##  8     8 h    
##  9     9 i    
## 10    10 j    
## # ... with 16 more rows

# 최소 3줄
options(tibble.print_max = 5, tibble.print_min = 3)
tibble(a = 1:26, b = letters) 

## # A tibble: 26 x 2
##       a b    
##   <int> <chr>
## 1     1 a    
## 2     2 b    
## 3     3 c    
## # ... with 23 more rows

첫 번째 티블의 경우, 행의 갯수가 26개로 20개(`tibble.print_max = 20)를 초과하므로, 10개의 행(tibble.print_min = 10)만 출력하고 있다.

두 번째 티블의 경우, 행의 갯수가 26개로 5개(`tibble.print_max = 5)를 초과하므로, 3개의 행(tibble.print_min = 3)만 출력하고 있다.

options(tibble.width = Inf) 을 사용하면 화면 너비와 상관없이 모든 열을 출력한다.

nycflights13::flights %>% 
  print(n = 10, width = Inf)

## # A tibble: 336,776 x 19
##     year month   day dep_time sched_dep_time dep_delay arr_time sched_arr_time
##    <int> <int> <int>    <int>          <int>     <dbl>    <int>          <int>
##  1  2013     1     1      517            515         2      830            819
##  2  2013     1     1      533            529         4      850            830
##  3  2013     1     1      542            540         2      923            850
##  4  2013     1     1      544            545        -1     1004           1022
##  5  2013     1     1      554            600        -6      812            837
##  6  2013     1     1      554            558        -4      740            728
##  7  2013     1     1      555            600        -5      913            854
##  8  2013     1     1      557            600        -3      709            723
##  9  2013     1     1      557            600        -3      838            846
## 10  2013     1     1      558            600        -2      753            745
##    arr_delay carrier flight tailnum origin dest  air_time distance  hour minute
##        <dbl> <chr>    <int> <chr>   <chr>  <chr>    <dbl>    <dbl> <dbl>  <dbl>
##  1        11 UA        1545 N14228  EWR    IAH        227     1400     5     15
##  2        20 UA        1714 N24211  LGA    IAH        227     1416     5     29
##  3        33 AA        1141 N619AA  JFK    MIA        160     1089     5     40
##  4       -18 B6         725 N804JB  JFK    BQN        183     1576     5     45
##  5       -25 DL         461 N668DN  LGA    ATL        116      762     6      0
##  6        12 UA        1696 N39463  EWR    ORD        150      719     5     58
##  7        19 B6         507 N516JB  EWR    FLL        158     1065     6      0
##  8       -14 EV        5708 N829AS  LGA    IAD         53      229     6      0
##  9        -8 B6          79 N593JB  JFK    MCO        140      944     6      0
## 10         8 AA         301 N3ALAA  LGA    ORD        138      733     6      0
##    time_hour          
##    <dttm>             
##  1 2013-01-01 05:00:00
##  2 2013-01-01 05:00:00
##  3 2013-01-01 05:00:00
##  4 2013-01-01 05:00:00
##  5 2013-01-01 06:00:00
##  6 2013-01-01 05:00:00
##  7 2013-01-01 06:00:00
##  8 2013-01-01 06:00:00
##  9 2013-01-01 06:00:00
## 10 2013-01-01 06:00:00
## # ... with 336,766 more rows
…
# mtcars
as.tibble(mtcars)

## Warning: `as.tibble()` is deprecated as of tibble 2.0.0.
## Please use `as_tibble()` instead.
## The signature and semantics have changed, see `?as_tibble`.
## This warning is displayed once every 8 hours.
## Call `lifecycle::last_warnings()` to see where this warning was generated.

## # A tibble: 32 x 11
##     mpg   cyl  disp    hp  drat    wt  qsec    vs    am  gear  carb
##   <dbl> <dbl> <dbl> <dbl> <dbl> <dbl> <dbl> <dbl> <dbl> <dbl> <dbl>
## 1  21       6   160   110  3.9   2.62  16.5     0     1     4     4
## 2  21       6   160   110  3.9   2.88  17.0     0     1     4     4
## 3  22.8     4   108    93  3.85  2.32  18.6     1     1     4     1
## # ... with 29 more rows
…
## 3.
mutate(test, `3` = `2` / `1`)

## # A tibble: 10 x 3
##     `1`   `2`   `3`
##   <int> <dbl> <dbl>
## 1     1  1.00  1.00
## 2     2  3.22  1.61
## 3     3  6.06  2.02
## # ... with 7 more rows
…
n_extra 인수가 열 이름의 갯수를 제어한다. (? print.tbl 참고)

  mtcars2 <- as_tibble(cbind(mtcars, mtcars), .name_repair = "unique")

## New names:
## * mpg -> mpg...1
## * cyl -> cyl...2
## * disp -> disp...3
## * hp -> hp...4
## * drat -> drat...5
## * ...

  print(mtcars2, n = 4, n_extra = 4)

## # A tibble: 32 x 22
##   mpg...1 cyl...2 disp...3 hp...4 drat...5 wt...6 qsec...7 vs...8 am...9
##     <dbl>   <dbl>    <dbl>  <dbl>    <dbl>  <dbl>    <dbl>  <dbl>  <dbl>
## 1    21         6      160    110     3.9    2.62     16.5      0      1
## 2    21         6      160    110     3.9    2.88     17.0      0      1
## 3    22.8       4      108     93     3.85   2.32     18.6      1      1
## 4    21.4       6      258    110     3.08   3.22     19.4      1      0
## # ... with 28 more rows, and 13 more variables: gear...10 <dbl>,
## #   carb...11 <dbl>, mpg...12 <dbl>, cyl...13 <dbl>, ...

  print(mtcars2, n = 4, n_extra = 10)

## # A tibble: 32 x 22
##   mpg...1 cyl...2 disp...3 hp...4 drat...5 wt...6 qsec...7 vs...8 am...9
##     <dbl>   <dbl>    <dbl>  <dbl>    <dbl>  <dbl>    <dbl>  <dbl>  <dbl>
## 1    21         6      160    110     3.9    2.62     16.5      0      1
## 2    21         6      160    110     3.9    2.88     17.0      0      1
## 3    22.8       4      108     93     3.85   2.32     18.6      1      1
## 4    21.4       6      258    110     3.08   3.22     19.4      1      0
## # ... with 28 more rows, and 13 more variables: gear...10 <dbl>,
## #   carb...11 <dbl>, mpg...12 <dbl>, cyl...13 <dbl>, disp...14 <dbl>,
## #   hp...15 <dbl>, drat...16 <dbl>, wt...17 <dbl>, qsec...18 <dbl>,
## #   vs...19 <dbl>, ...
…
