4.10 summarise()함수를 이용한 요약 통계량 계산 | tidyverse를 이용한 데이터 관리
…
Cars93 데이터 프레임에서 ‘차종(Type)’ 별로 a) 전체 관측치 갯수, b) (중복 없는) 제조사 업체 수, c) 가격(Price)의 평균과 d) 가격의 표준편차를 구해 보자 (단, 결측값은 포함하지 않고 계산함).

# summarise by group 
grouped <- group_by(Cars93, Type) 
summarise(grouped, 
          n_conut = n(),                                  # counting the number of cars 
          Manufacturer_cnt = n_distinct(Manufacturer),    # distinct number of Manufacturer 
          Price_mean = mean(Price, na.rm = TRUE),         # mean of Price 
          Price_sd = sd(Price, na.rm = TRUE)              # standard deviation of Price 
          )

## `summarise()` ungrouping output (override with `.groups` argument)

## # A tibble: 6 x 5
##   Type    n_conut Manufacturer_cnt Price_mean Price_sd
##   <fct>     <int>            <int>      <dbl>    <dbl>
## 1 Compact      16               15       18.2     6.69
## 2 Large        11               10       24.3     6.34
## 3 Midsize      22               20       27.2    12.3 
## # ... with 3 more rows

# 또는
Cars93 %>% group_by(Type) %>% 
summarise(n_conut = n(),                                    # counting the number of cars 
            Manufacturer_cnt = n_distinct(Manufacturer),    # distinct number of Manufacturer 
            Price_mean = mean(Price, na.rm = TRUE),         # mean of Price 
            Price_sd = sd(Price, na.rm = TRUE)              # standard deviation of Price 
)

## `summarise()` ungrouping output (override with `.groups` argument)

## # A tibble: 6 x 5
##   Type    n_conut Manufacturer_cnt Price_mean Price_sd
##   <fct>     <int>            <int>      <dbl>    <dbl>
## 1 Compact      16               15       18.2     6.69
## 2 Large        11               10       24.3     6.34
## 3 Midsize      22               20       27.2    12.3 
## # ... with 3 more rows
…
