Chapter 4 Data Preprocessing | Data Management with R
…
size : 표본의 갯수

분석을 하다 보면 집단, 그룹별로 동일한 수의 표본을 무작위 추출해서 분석해야 하는 경우가 있다. 특히 분석 주제 혹은 분석에 큰 영향을 미치는 요인 변수에 대한 집단 분포(distribution)가 한쪽 그룹으로 심하게 편향된 모집단(biased, unbalanced population)의 경우 층화 무작위 표본 추출(stratified random sampling)이 필요합니다.

*[예제] Cars93 데이터 프레임에서 ‘제조국가_미국여부(Origin)’의 ’USA,’ ‘non-USA’ 요인 속성별로 각 10개씩의 표본을 무작위 비복원 추출하시오.*

# dataframe %>% 
#             group_by(factor_var) %>%  
#             sample_n(size) : random sampling by group 
Cars93[ , c("Manufacturer", "Model", "Origin")] %>% 
      group_by(Origin) %>% 
      sample_n(10)

## # A tibble: 20 x 3
## # Groups:   Origin [2]
##   Manufacturer Model          Origin
##   <fct>        <fct>          <fct> 
## 1 Saturn       SL             USA   
## 2 Ford         Crown_Victoria USA   
## 3 Dodge        Stealth        USA   
## # ... with 17 more rows
…
Cars93 데이터 프레임에서 ‘차종(Type)’ 별로 a) 전체 관측치 갯수, b) (중복 없는) 제조사 업체 수, c) 가격(Price)의 평균과 d) 가격의 표준편차를 구해 보자 (단, 결측값은 포함하지 않고 계산함).

# summarise by group 
grouped <- group_by(Cars93, Type) 
summarise(grouped, 
          n_conut = n(),                                  # counting the number of cars 
          Manufacturer_cnt = n_distinct(Manufacturer),    # distinct number of Manufacturer 
          Price_mean = mean(Price, na.rm = TRUE),         # mean of Price 
          Price_sd = sd(Price, na.rm = TRUE)              # standard deviation of Price 
          )

## `summarise()` ungrouping output (override with `.groups` argument)

## # A tibble: 6 x 5
##   Type    n_conut Manufacturer_cnt Price_mean Price_sd
##   <fct>     <int>            <int>      <dbl>    <dbl>
## 1 Compact      16               15       18.2     6.69
## 2 Large        11               10       24.3     6.34
## 3 Midsize      22               20       27.2    12.3 
## # ... with 3 more rows

# 또는
Cars93 %>% group_by(Type) %>% 
summarise(n_conut = n(),                                    # counting the number of cars 
            Manufacturer_cnt = n_distinct(Manufacturer),    # distinct number of Manufacturer 
            Price_mean = mean(Price, na.rm = TRUE),         # mean of Price 
            Price_sd = sd(Price, na.rm = TRUE)              # standard deviation of Price 
)

## `summarise()` ungrouping output (override with `.groups` argument)

## # A tibble: 6 x 5
##   Type    n_conut Manufacturer_cnt Price_mean Price_sd
##   <fct>     <int>            <int>      <dbl>    <dbl>
## 1 Compact      16               15       18.2     6.69
## 2 Large        11               10       24.3     6.34
## 3 Midsize      22               20       27.2    12.3 
## # ... with 3 more rows
…
