6 Relational Data | Data Management with R
…
6.1.3.1 bind_rows() 함수의 이용 예

데이터 세트 d1과 d2를 bind_rows() 함수로 결합하여 d3를 만들어 보자.

# a new variable called source is added to the beginning of the dataset
d3 <- bind_rows(d1, d2, .id="source")
dim(d3)

## [1] 231  27

# these are the rows where the datasets meet
# hospital is found in both datasets, agecat and highpain are not
select(d3, source, hospital, agecat, highpain)[118:123,]

## # A tibble: 6 x 4
##   source hospital agecat  highpain
##   <chr>  <chr>    <fct>   <lgl>   
## 1 1      UCSF     (50,60] TRUE    
## 2 1      UCSF     (50,60] TRUE    
## 3 1      UCSF     (50,60] TRUE    
## # ... with 3 more rows

bind_rows() 함수 내의 .id = “source”에 의해 d3에 source 컬럼이 추가되고, 그 값은 d1에서 결합된 행인 경우(118 ~ 120 행)는 1, d2에서 결합된 행이면(121~123 행) 2의 값을 갖는다.

d2에서 결합된 행의 경우 agecat 컬럼과 highpain 컬럼의 값이 NA로 채워져 있음을 알 수 있다.

6.1.3.2 rbind() 함수의 이용 예

# this will work because we restrict d1 to only variables common to both
drbind <- rbind(d1[,1:24], d2)
drbind

## # A tibble: 231 x 24
##   hospital hospid docid dis_date sex     age  test1 test2  pain tumorsize   co2
##   <chr>     <dbl> <chr> <chr>    <chr> <dbl>  <dbl> <dbl> <dbl>     <dbl> <dbl>
## 1 UCLA          1 1-1   6-Sep-09 male   65.0   3.70 8.09      4      68.0  1.53
## 2 UCLA          1 1-1   7-Jan-11 fema~  53.9   2.63 0.803     2      64.7  1.68
## 3 UCLA          1 1-1   4-Sep-10 male   41.4 -99    2.13      3      86.4  1.45
## # ... with 228 more rows, and 13 more variables: wound <dbl>, mobility <dbl>,
## #   ntumors <dbl>, remission <dbl>, lungcapacity <dbl>, married <dbl>,
## #   familyhx <chr>, smokinghx <chr>, cancerstage <chr>, lengthofstay <dbl>,
## #   wbc <chr>, rbc <dbl>, bmi <dbl>
…
6.3.2 준비하기

우리는 dplyr 의 2-테이블 동사를 사용하여 nycflights13 패키지에 있는 관계형 데이터를 탐색할 것이다.

library(nycflights13)

6.3.3 nycflights13 패키지 내의 데이터 세트

관계형 데이터에 대해 배우기 위해 nycflights13 패키지를 사용할 것이다. nycflights13 패키지에는 flights 테이블과 관련된 4개의 티블(tibble)이 있다.

airlines 를 사용하면 해당 약어 코드로 전체 항공사명을 찾아볼 수 있다.

airlines

## # A tibble: 16 x 2
##   carrier name                  
##   <chr>   <chr>                 
## 1 9E      Endeavor Air Inc.     
## 2 AA      American Airlines Inc.
## 3 AS      Alaska Airlines Inc.  
## # ... with 13 more rows

airports 에는 각 공항에 대한 정보가 faa 공항 코드로 식별되어 있다.

airports

## # A tibble: 1,458 x 8
##   faa   name                          lat   lon   alt    tz dst   tzone         
##   <chr> <chr>                       <dbl> <dbl> <dbl> <dbl> <chr> <chr>         
## 1 04G   Lansdowne Airport            41.1 -80.6  1044    -5 A     America/New_Y~
## 2 06A   Moton Field Municipal Airp~  32.5 -85.7   264    -6 A     America/Chica~
## 3 06C   Schaumburg Regional          42.0 -88.1   801    -6 A     America/Chica~
## # ... with 1,455 more rows

planes 에는 각 여객기에 대한 정보가 tailnum 으로 식별되어 있다.

planes

## # A tibble: 3,322 x 9
##   tailnum  year type           manufacturer   model  engines seats speed engine 
##   <chr>   <int> <chr>          <chr>          <chr>    <int> <int> <int> <chr>  
## 1 N10156   2004 Fixed wing mu~ EMBRAER        EMB-1~       2    55    NA Turbo-~
## 2 N102UW   1998 Fixed wing mu~ AIRBUS INDUST~ A320-~       2   182    NA Turbo-~
## 3 N103US   1999 Fixed wing mu~ AIRBUS INDUST~ A320-~       2   182    NA Turbo-~
## # ... with 3,319 more rows

weather 에는 각 NYC 공항의 매 시각 날씨 정보가 있다.

weather

## # A tibble: 26,115 x 15
##   origin  year month   day  hour  temp  dewp humid wind_dir wind_speed wind_gust
##   <chr>  <int> <int> <int> <int> <dbl> <dbl> <dbl>    <dbl>      <dbl>     <dbl>
## 1 EWR     2013     1     1     1  39.0  26.1  59.4      270      10.4         NA
## 2 EWR     2013     1     1     2  39.0  27.0  61.6      250       8.06        NA
## 3 EWR     2013     1     1     3  39.0  28.0  64.4      240      11.5         NA
## # ... with 26,112 more rows, and 4 more variables: precip <dbl>,
## #   pressure <dbl>, visib <dbl>, time_hour <dttm>
…
반면에 weather 테이블의 경우, year, month, day, hour, orgin 등의 5개의 변수를 동시에 고려한 경우(이를 합성키라고 함) 중복값이 3개 나옴을 알 수 있다. 즉, 이 5개의 변수를 합성하여 기본키로 사용할 수 없음을 의미한다.

때로 테이블에 명시적인 기본키가 없는 경우가 있다. 모든 행은 관측값이지만 어떤 변수를 조합해도 각 행을 신뢰성있게 구분하지 못하는 경우이다. 예를 들어, flight 테이블의 기본키는 무엇인가? 여러분은 date 에 flight 혹은 tailnum 을 더한 것으로 생각하겠지만 이들 중 어느 것도 고유하지 않다.

flights %>% 
  count(year, month, day, flight) %>% 
  filter(n > 1)

## # A tibble: 29,768 x 5
##    year month   day flight     n
##   <int> <int> <int>  <int> <int>
## 1  2013     1     1      1     2
## 2  2013     1     1      3     2
## 3  2013     1     1      4     2
## # ... with 29,765 more rows

flights 테이블의 경우, year, month, day, flight 등의 4개의 변수를 동시에 고려한 경우에도 많은 중복값들이 나옴을 알 수 있다. 즉, 이 4개의 변수를 합성하여 기본키로 사용할 수 없음을 의미한다.

flights %>% 
  count(year, month, day, tailnum) %>% 
  filter(n > 1)

## # A tibble: 64,928 x 5
##    year month   day tailnum     n
##   <int> <int> <int> <chr>   <int>
## 1  2013     1     1 N0EGMQ      2
## 2  2013     1     1 N11189      2
## 3  2013     1     1 N11536      2
## # ... with 64,925 more rows
…
Lahman 패키지의 Batting, Master, Salaries 테이블 간의 연결을 나타내는 다이어그램을 그려라. Master, Managers, AwardsManagers 사이의 관계를 보여주는 또 다른 다이어그램을 그려라.

Batting, Pitching, Fielding 테이블 간의 관계를 어떻게 규정하겠는가?

6.4 변환 조인(Mutating Join)

한 쌍의 테이블을 결합하기 위해 살펴 볼 첫 번째 도구는 변환 조인(Mutating Join) 이다. 변환조인을 사용하면 두 테이블의 변수를 결합할 수 있다. 먼저 관측값을 키로 매칭시킨 다음, 한 테이블에서 다른 테이블로 변수들을 복사한다.

mutate() 와 마찬가지로 조인 함수는 오른쪽에 변수를 추가하므로 이미 많은 변수가 있는 경우 새 변수가 출력되지 않는다. 이 예제에서는 어떤 일이 일어나는지 더 쉽게 보기 위해 더 좁은 데이터셋을 작성한다.

flights2 <- flights %>% 
  select(year:day, hour, origin, dest, tailnum, carrier)
flights2

## # A tibble: 336,776 x 8
##    year month   day  hour origin dest  tailnum carrier
##   <int> <int> <int> <dbl> <chr>  <chr> <chr>   <chr>  
## 1  2013     1     1     5 EWR    IAH   N14228  UA     
## 2  2013     1     1     5 LGA    IAH   N24211  UA     
## 3  2013     1     1     5 JFK    MIA   N619AA  AA     
## # ... with 336,773 more rows

(RStudio에서는 View() 를 사용하여 이 문제를 피할 수도 있음을 기억하라.)

flight2 데이터에 항공사 전체 이름을 추가하려고 한다고 가정하자. left_join() 으로 airlines 와 flights2 데이터프레임을 결합할 수 있다.

flights2 %>%
  select(-origin, -dest) %>% 
  left_join(airlines, by = "carrier")

## # A tibble: 336,776 x 7
##    year month   day  hour tailnum carrier name                  
##   <int> <int> <int> <dbl> <chr>   <chr>   <chr>                 
## 1  2013     1     1     5 N14228  UA      United Air Lines Inc. 
## 2  2013     1     1     5 N24211  UA      United Air Lines Inc. 
## 3  2013     1     1     5 N619AA  AA      American Airlines Inc.
## # ... with 336,773 more rows

flights2 은 airlines 와 결합하여, 새로운 변수 name 이 추가되었다. 이것이 내가 이 유형의 조인을 변환 조인이라고 부르는 이유이다. 이 경우 mutate() 와 R 의 base 서브세팅 작업을 사용하여 같은 위치에 도달할 수 있다.

flights2 %>%
  select(-origin, -dest) %>% 
  mutate(name = airlines$name[match(carrier, airlines$carrier)])

## # A tibble: 336,776 x 7
##    year month   day  hour tailnum carrier name                  
##   <int> <int> <int> <dbl> <chr>   <chr>   <chr>                 
## 1  2013     1     1     5 N14228  UA      United Air Lines Inc. 
## 2  2013     1     1     5 N24211  UA      United Air Lines Inc. 
## 3  2013     1     1     5 N619AA  AA      American Airlines Inc.
## # ... with 336,773 more rows
…
     1, "x1",
     2, "x2",
     2, "x3",
     3, "x4"
)
y <- tribble(
  ~key, ~val_y,
     1, "y1",
     2, "y2",
     2, "y3",
     3, "y4"
)
left_join(x, y, by = "key")

## # A tibble: 6 x 3
##     key val_x val_y
##   <dbl> <chr> <chr>
## 1     1 x1    y1   
## 2     2 x2    y2   
## 3     2 x2    y3   
## # ... with 3 more rows

6.4.5 키열 정의하기

지금까지 테이블 쌍은 항상 하나의 변수에 의해 조인되었으며 그 변수는 두 테이블에서 같은 이름을 가졌었다. 그 제약은 by = "key" 로 코드화되었다. by 에 다른 값을 사용하여 다른 방법으로 테이블을 연결할 수 있다.

기본값 by = NULL 을 사용하면 두 테이블에 있는 모든 변수를 사용하며 이는 자연 조인(natural join)이라 부른다. 예를 들어 flights 및 weather 테이블은 공통 변수인 year, month, day, hour, origin 으로 매치된다.

flights2 %>% 
  left_join(weather)

## Joining, by = c("year", "month", "day", "hour", "origin")

## # A tibble: 336,776 x 18
##    year month   day  hour origin dest  tailnum carrier  temp  dewp humid
##   <int> <int> <int> <dbl> <chr>  <chr> <chr>   <chr>   <dbl> <dbl> <dbl>
## 1  2013     1     1     5 EWR    IAH   N14228  UA       39.0  28.0  64.4
## 2  2013     1     1     5 LGA    IAH   N24211  UA       39.9  25.0  54.8
## 3  2013     1     1     5 JFK    MIA   N619AA  AA       39.0  27.0  61.6
## # ... with 336,773 more rows, and 7 more variables: wind_dir <dbl>,
## #   wind_speed <dbl>, wind_gust <dbl>, precip <dbl>, pressure <dbl>,
## #   visib <dbl>, time_hour <dttm>

문자형 벡터 by = "x" . 이것은 자연 결합과 같지만 일부 공통 변수만 사용한다. 예를 들어 flights 와 planes 에는 year 변수가 있지만 서로 다른 의미이므로 tailnum 으로만 조인하고 싶다.

flights2 %>% 
  left_join(planes, by = "tailnum")

## # A tibble: 336,776 x 16
##   year.x month   day  hour origin dest  tailnum carrier year.y type 
##    <int> <int> <int> <dbl> <chr>  <chr> <chr>   <chr>    <int> <chr>
## 1   2013     1     1     5 EWR    IAH   N14228  UA        1999 Fixe~
## 2   2013     1     1     5 LGA    IAH   N24211  UA        1998 Fixe~
## 3   2013     1     1     5 JFK    MIA   N619AA  AA        1990 Fixe~
## # ... with 336,773 more rows, and 6 more variables: manufacturer <chr>,
## #   model <chr>, engines <int>, seats <int>, speed <int>, engine <chr>

year 변수 (두 입력 데이터프레임 모두에 나타나지만 같지 않도록 제한시킴)는 접미사가 붙어서 출력에서 헷갈리지 않게 된 것을 확인하라.

이름있는 문자 벡터, by = c("a" = "b") . 테이블 x 의 변수 a 와 테이블 y 의 변수 b 를 매칭시킨다. x 의 변수가 출력에 사용된다.

예를 들어, 지도를 그리려면 flights 데이터를 각 공항의 위치(lat 과 lon , 위도와 경도)가 포함된 airports 데이터와 결합해야 한다. 각 항공편에는 출발 공항(origin)과 도착 공항(dest)이 있으므로 어떤 것에 조인할지 지정해야 한다.

flights2 %>% 
  left_join(airports, c("dest" = "faa"))

## # A tibble: 336,776 x 15
##    year month   day  hour origin dest  tailnum carrier name    lat   lon   alt
##   <int> <int> <int> <dbl> <chr>  <chr> <chr>   <chr>   <chr> <dbl> <dbl> <dbl>
## 1  2013     1     1     5 EWR    IAH   N14228  UA      Geor~  30.0 -95.3    97
## 2  2013     1     1     5 LGA    IAH   N24211  UA      Geor~  30.0 -95.3    97
## 3  2013     1     1     5 JFK    MIA   N619AA  AA      Miam~  25.8 -80.3     8
## # ... with 336,773 more rows, and 3 more variables: tz <dbl>, dst <chr>,
## #   tzone <chr>

flights2 %>% 
  left_join(airports, c("origin" = "faa"))

## # A tibble: 336,776 x 15
##    year month   day  hour origin dest  tailnum carrier name    lat   lon   alt
##   <int> <int> <int> <dbl> <chr>  <chr> <chr>   <chr>   <chr> <dbl> <dbl> <dbl>
## 1  2013     1     1     5 EWR    IAH   N14228  UA      Newa~  40.7 -74.2    18
## 2  2013     1     1     5 LGA    IAH   N24211  UA      La G~  40.8 -73.9    22
## 3  2013     1     1     5 JFK    MIA   N619AA  AA      John~  40.6 -73.8    13
## # ... with 336,773 more rows, and 3 more variables: tz <dbl>, dst <chr>,
## #   tzone <chr>
…
필터링 조인(Filtering join)은 변환 조인과 같은 방식으로 관측값을 매칭하지만 변수가 아닌 관측값에 영향을 준다. 두 가지 유형이 있다.

semi_join(x, y) 는 y 와 매치되는 x 의 모든 관측값을 보존한다 .

anti_join(x, y) 는 y 와 매치되는 x 의 모든 관측값을 삭제한다 .

세미 조인(Semi-joins)은 필터링된 요약 테이블을 다시 원래 행과 매치시키는 데 유용하다. 예를 들어 가장 인기 있는 상위 10개 도착지(dest)를 구했다고 가정해보자.

top_dest <- flights %>%
  count(dest, sort = TRUE) %>%
  head(10)
top_dest

## # A tibble: 10 x 2
##   dest      n
##   <chr> <int>
## 1 ORD   17283
## 2 ATL   17215
## 3 LAX   16174
## # ... with 7 more rows

이제 그 목적지 중 한 곳(dest %in% top_dest$dest)으로 운행한 항공편(flihts)을 찾고 싶다면 직접 필터를 만들 수 있다.

flights %>% 
  filter(dest %in% top_dest$dest)

## # A tibble: 141,145 x 19
##    year month   day dep_time sched_dep_time dep_delay arr_time sched_arr_time
##   <int> <int> <int>    <int>          <int>     <dbl>    <int>          <int>
## 1  2013     1     1      542            540         2      923            850
## 2  2013     1     1      554            600        -6      812            837
## 3  2013     1     1      554            558        -4      740            728
## # ... with 141,142 more rows, and 11 more variables: arr_delay <dbl>,
## #   carrier <chr>, flight <int>, tailnum <chr>, origin <chr>, dest <chr>,
## #   air_time <dbl>, distance <dbl>, hour <dbl>, minute <dbl>, time_hour <dttm>

그러나 이러한 접근 방식을 여러 변수로 확장하는 것은 어렵다. 예를 들어 평균 연착시간(average arr_delay)이 가장 길었던 날 10일을 골라냈다고 상상해보라. year, month, day 를 사용하여 다시 항공편(flights)과 일치시키는 필터 구문을 어떻게 작성할 수 있는가?

한편 변환 조인과 같이 두 테이블을 연결하는 세미 조인을 사용할 수 있지만, 새 열을 추가하는 대신 y 에서 일치하는 x 의 행만 보존한다.

flights %>% 
  semi_join(top_dest)

## Joining, by = "dest"

## # A tibble: 141,145 x 19
##    year month   day dep_time sched_dep_time dep_delay arr_time sched_arr_time
##   <int> <int> <int>    <int>          <int>     <dbl>    <int>          <int>
## 1  2013     1     1      542            540         2      923            850
## 2  2013     1     1      554            600        -6      812            837
## 3  2013     1     1      554            558        -4      740            728
## # ... with 141,142 more rows, and 11 more variables: arr_delay <dbl>,
## #   carrier <chr>, flight <int>, tailnum <chr>, origin <chr>, dest <chr>,
## #   air_time <dbl>, distance <dbl>, hour <dbl>, minute <dbl>, time_hour <dttm>
…
x %>%  anti_join(y, by="key")

## # A tibble: 1 x 2
##     key val_x
##   <dbl> <chr>
## 1     3 x3

안티 조인(Anti-join)은 조인 불일치를 진단하는 데 유용하다. 예를 들어 flights과 planes 를 연결하는 경우, planes 에 매치되지 않는 flights 이 많다는 것을 알고 싶을 수 있다.

flights %>%
  anti_join(planes, by = "tailnum") %>%
  count(tailnum, sort = TRUE)

## # A tibble: 722 x 2
##   tailnum     n
##   <chr>   <int>
## 1 <NA>     2512
## 2 N725MQ    575
## 3 N722MQ    513
## # ... with 719 more rows
…
