6.3 Relational Data | tidyverse를 이용한 데이터 관리
…
6.3.2 준비하기

우리는 dplyr 의 2-테이블 동사를 사용하여 nycflights13 패키지에 있는 관계형 데이터를 탐색할 것이다.

library(nycflights13)

6.3.3 nycflights13 패키지 내의 데이터 세트

관계형 데이터에 대해 배우기 위해 nycflights13 패키지를 사용할 것이다. nycflights13 패키지에는 flights 테이블과 관련된 4개의 티블(tibble)이 있다.

airlines 를 사용하면 해당 약어 코드로 전체 항공사명을 찾아볼 수 있다.

airlines

## # A tibble: 16 x 2
##   carrier name                  
##   <chr>   <chr>                 
## 1 9E      Endeavor Air Inc.     
## 2 AA      American Airlines Inc.
## 3 AS      Alaska Airlines Inc.  
## # ... with 13 more rows

airports 에는 각 공항에 대한 정보가 faa 공항 코드로 식별되어 있다.

airports

## # A tibble: 1,458 x 8
##   faa   name                          lat   lon   alt    tz dst   tzone         
##   <chr> <chr>                       <dbl> <dbl> <dbl> <dbl> <chr> <chr>         
## 1 04G   Lansdowne Airport            41.1 -80.6  1044    -5 A     America/New_Y~
## 2 06A   Moton Field Municipal Airp~  32.5 -85.7   264    -6 A     America/Chica~
## 3 06C   Schaumburg Regional          42.0 -88.1   801    -6 A     America/Chica~
## # ... with 1,455 more rows

planes 에는 각 여객기에 대한 정보가 tailnum 으로 식별되어 있다.

planes

## # A tibble: 3,322 x 9
##   tailnum  year type           manufacturer   model  engines seats speed engine 
##   <chr>   <int> <chr>          <chr>          <chr>    <int> <int> <int> <chr>  
## 1 N10156   2004 Fixed wing mu~ EMBRAER        EMB-1~       2    55    NA Turbo-~
## 2 N102UW   1998 Fixed wing mu~ AIRBUS INDUST~ A320-~       2   182    NA Turbo-~
## 3 N103US   1999 Fixed wing mu~ AIRBUS INDUST~ A320-~       2   182    NA Turbo-~
## # ... with 3,319 more rows

weather 에는 각 NYC 공항의 매 시각 날씨 정보가 있다.

weather

## # A tibble: 26,115 x 15
##   origin  year month   day  hour  temp  dewp humid wind_dir wind_speed wind_gust
##   <chr>  <int> <int> <int> <int> <dbl> <dbl> <dbl>    <dbl>      <dbl>     <dbl>
## 1 EWR     2013     1     1     1  39.0  26.1  59.4      270      10.4         NA
## 2 EWR     2013     1     1     2  39.0  27.0  61.6      250       8.06        NA
## 3 EWR     2013     1     1     3  39.0  28.0  64.4      240      11.5         NA
## # ... with 26,112 more rows, and 4 more variables: precip <dbl>,
## #   pressure <dbl>, visib <dbl>, time_hour <dttm>
…
반면에 weather 테이블의 경우, year, month, day, hour, orgin 등의 5개의 변수를 동시에 고려한 경우(이를 합성키라고 함) 중복값이 3개 나옴을 알 수 있다. 즉, 이 5개의 변수를 합성하여 기본키로 사용할 수 없음을 의미한다.

때로 테이블에 명시적인 기본키가 없는 경우가 있다. 모든 행은 관측값이지만 어떤 변수를 조합해도 각 행을 신뢰성있게 구분하지 못하는 경우이다. 예를 들어, flight 테이블의 기본키는 무엇인가? 여러분은 date 에 flight 혹은 tailnum 을 더한 것으로 생각하겠지만 이들 중 어느 것도 고유하지 않다.

flights %>% 
  count(year, month, day, flight) %>% 
  filter(n > 1)

## # A tibble: 29,768 x 5
##    year month   day flight     n
##   <int> <int> <int>  <int> <int>
## 1  2013     1     1      1     2
## 2  2013     1     1      3     2
## 3  2013     1     1      4     2
## # ... with 29,765 more rows

flights 테이블의 경우, year, month, day, flight 등의 4개의 변수를 동시에 고려한 경우에도 많은 중복값들이 나옴을 알 수 있다. 즉, 이 4개의 변수를 합성하여 기본키로 사용할 수 없음을 의미한다.

flights %>% 
  count(year, month, day, tailnum) %>% 
  filter(n > 1)

## # A tibble: 64,928 x 5
##    year month   day tailnum     n
##   <int> <int> <int> <chr>   <int>
## 1  2013     1     1 N0EGMQ      2
## 2  2013     1     1 N11189      2
## 3  2013     1     1 N11536      2
## # ... with 64,925 more rows
…
