Chapter 10 Strings | Data Management with R
…
# On average, how many vowels per word?
mean(str_count(words, "[aeiou]"))

## [1] 1.991837

str_count() 는 mutate() 와 함께 쓰는 것이 자연스럽다.

df %>% 
  mutate(
    vowels = str_count(word, "[aeiou]"),
    consonants = str_count(word, "[^aeiou]")
  )

## # A tibble: 980 x 4
##   word      i vowels consonants
##   <chr> <int>  <int>      <int>
## 1 a         1      1          0
## 2 able      2      2          2
## 3 about     3      3          2
## # ... with 977 more rows
…
(예상했지만, 명사 검출하는 이 휴리스틱 방법은 좋지 않다. smooth나 parked 같은 형용사도 검출하고 있다.)

데이터가 티블인 경우, tidyr::extract() 를 사용하는 것이 더 쉽다. 이 함수는 str_match() 처럼 동작하지만, 매치를 명명할 것을 사용자에게 요청하고, 그 후 새로운 열로 배치한다.

tibble(sentence = sentences) %>% 
  tidyr::extract(
    sentence, c("article", "noun"), "(a|the) ([^ ]+)", 
    remove = FALSE
  )

## # A tibble: 720 x 3
##   sentence                                    article noun  
##   <chr>                                       <chr>   <chr> 
## 1 The birch canoe slid on the smooth planks.  the     smooth
## 2 Glue the sheet to the dark blue background. the     sheet 
## 3 It's easy to tell the depth of a well.      the     depth 
## # ... with 717 more rows
…
