7.4 하나의 컬럼에 복수 개의 변수들이 있는 경우 | tidyverse를 이용한 데이터 관리
…
7.4.1 데이터 세트

worms <- read_csv("data7/worms.csv")

## 
## -- Column specification --------------------------------------------------------
## cols(
##   worm = col_double(),
##   feature = col_character(),
##   measure = col_double()
## )

worms

## # A tibble: 9 x 3
##    worm feature measure
##   <dbl> <chr>     <dbl>
## 1     1 age         5  
## 2     1 length      3.2
## 3     1 weight      4.1
## # ... with 6 more rows
…
