7 Tidy Data | Data Management with R
…
summarise() 함수를 이용하여 by_doc 데이터 세트의 요약 정보를 확인하고, 그 결과를 변수 pat_summ에 대입한다.

# Create summaries of patients by doctor
pat_summ <- summarise(by_doc,
                      n_pat = n(), # number of patients
                      longest_los = max(lengthofstay), # longest length of stay
                      avg_age = mean(age), # average age
                      n_stage_four = sum(cancerstage=="IV") # number of stage IV patients 
                      )

## `summarise()` ungrouping output (override with `.groups` argument)

pat_summ

## # A tibble: 22 x 5
##   docid n_pat longest_los avg_age n_stage_four
##   <chr> <int>       <dbl>   <dbl>        <int>
## 1 1-1       7           6    52.5            0
## 2 1-100     9           7    86.2            0
## 3 1-11      8           7    51.7            1
## # ... with 19 more rows
…
학과명(id)은 연도(year)와 상관없이 변함이 없으며 따라서 축적할 필요가 없다.

여기서 c(`2015`, `2016`, `2017`)로 압축이 되어야 하는 컬럼에 대해서만 컬럼을 지정하여 재구성을 할 것이며(주의 : 문자로 시작하지 않는 컬럼 명에 대해서는 컬럼 명을 지정할 때 ` 기호가 필요),

이처럼 압축될 필요가 없는 컬럼에 대해서는 ‘- ’기호 다음에 컬럼을 지정한다.

# the new column "year" uses the column headings as values,
#  the new column "graduates" will be the collapsed values
#  we do not want to collapse id
dept_by_year <- dept %>% 
  pivot_longer(names_to="year", values_to="grad", -id)
dept_by_year

## # A tibble: 9 x 3
##   id      year   grad
##   <chr>   <chr> <dbl>
## 1 biology 2015    207
## 2 biology 2016    211
## 3 biology 2017    259
## # ... with 6 more rows
…
먼저 `2015`, `2016`, `2017` 등의 세 개의 컬럼을 선정한다.

이 세 개의 컬럼제목을 값으로 하는 새로운 테이블의 컬럼 이름을 지정한다. (key = “year”)

이 세 개의 컬럼에 저장되어 있는 값들을 저장할 새로운 테이블의 컬럼 이름을 지정한다. (value = “grad”

`2015`, `2016`, `2017` 등이 원래 데이터의 컬럼 제목이기 때문에 key = 인수에 변수명을 year로 지정할 것이다.

또한 2015, 2016 그리고 2017 컬럼에 있는 졸업율의 값들은 또 다른 새로운 변수에 축적이 되어야 하는데 이를 value = 인수로 grad 변수를 지정하여 저장할 것이다.

dept %>% 
  gather(`2015`, `2016`, `2017`, key = "year", value = "grad")

## # A tibble: 9 x 3
##   id      year   grad
##   <chr>   <chr> <dbl>
## 1 biology 2015    207
## 2 math    2015     96
## 3 physics 2015    112
## # ... with 6 more rows
…
7.4.1 데이터 세트

worms <- read_csv("data7/worms.csv")

## 
## -- Column specification --------------------------------------------------------
## cols(
##   worm = col_double(),
##   feature = col_character(),
##   measure = col_double()
## )

worms

## # A tibble: 9 x 3
##    worm feature measure
##   <dbl> <chr>     <dbl>
## 1     1 age         5  
## 2     1 length      3.2
## 3     1 weight      4.1
## # ... with 6 more rows
…
7.5 하나의 셀에 저장된 여러 변수 또는 여러 셀에 흩어져 있는 한 변수

데이터 세트를 untidy하게 만드는 두 개의 다른 이슈로는 1) 동일한 셀에 여러 개 변수가 저장되어 있는 경우와, 2) 한 변수가 여러 셀에 흩어져 저장되어 있는 경우이다.

tidyr 패키지에 내장되어 있는 table5 데이터는 이 두 문제를 동시에 보여주고 있다.

7.5.1 데이터 세트

table5

## # A tibble: 6 x 4
##   country     century year  rate           
## * <chr>       <chr>   <chr> <chr>          
## 1 Afghanistan 19      99    745/19987071   
## 2 Afghanistan 20      00    2666/20595360  
## 3 Brazil      19      99    37737/172006362
## # ... with 3 more rows
…
unite(data, col, … , sep = “_”, remove = TRUE)

col: 결합 컬럼이 될 새로운 컬럼의 이름

... : 결합될 컬럼의 목록

sep = : 분리자, 디폴트 값은 “_”

7.6.3 separate() 함수와 unite() 함수의 예

table5 %>% 
  separate(col=rate, into=c("cases", "population"), sep="/") %>% 
  unite(col="year", century, year, sep="")

## # A tibble: 6 x 4
##   country     year  cases population
##   <chr>       <chr> <chr> <chr>     
## 1 Afghanistan 1999  745   19987071  
## 2 Afghanistan 2000  2666  20595360  
## 3 Brazil      1999  37737 172006362 
## # ... with 3 more rows
…
