6.4 변환 조인(Mutating Join) | tidyverse를 이용한 데이터 관리
…
            tidyverse를 이용한 데이터 관리

6.4 변환 조인(Mutating Join)

한 쌍의 테이블을 결합하기 위해 살펴 볼 첫 번째 도구는 변환 조인(Mutating Join) 이다. 변환조인을 사용하면 두 테이블의 변수를 결합할 수 있다. 먼저 관측값을 키로 매칭시킨 다음, 한 테이블에서 다른 테이블로 변수들을 복사한다.

mutate() 와 마찬가지로 조인 함수는 오른쪽에 변수를 추가하므로 이미 많은 변수가 있는 경우 새 변수가 출력되지 않는다. 이 예제에서는 어떤 일이 일어나는지 더 쉽게 보기 위해 더 좁은 데이터셋을 작성한다.

flights2 <- flights %>% 
  select(year:day, hour, origin, dest, tailnum, carrier)
flights2

## # A tibble: 336,776 x 8
##    year month   day  hour origin dest  tailnum carrier
##   <int> <int> <int> <dbl> <chr>  <chr> <chr>   <chr>  
## 1  2013     1     1     5 EWR    IAH   N14228  UA     
## 2  2013     1     1     5 LGA    IAH   N24211  UA     
## 3  2013     1     1     5 JFK    MIA   N619AA  AA     
## # ... with 336,773 more rows

(RStudio에서는 View() 를 사용하여 이 문제를 피할 수도 있음을 기억하라.)

flight2 데이터에 항공사 전체 이름을 추가하려고 한다고 가정하자. left_join() 으로 airlines 와 flights2 데이터프레임을 결합할 수 있다.

flights2 %>%
  select(-origin, -dest) %>% 
  left_join(airlines, by = "carrier")

## # A tibble: 336,776 x 7
##    year month   day  hour tailnum carrier name                  
##   <int> <int> <int> <dbl> <chr>   <chr>   <chr>                 
## 1  2013     1     1     5 N14228  UA      United Air Lines Inc. 
## 2  2013     1     1     5 N24211  UA      United Air Lines Inc. 
## 3  2013     1     1     5 N619AA  AA      American Airlines Inc.
## # ... with 336,773 more rows

flights2 은 airlines 와 결합하여, 새로운 변수 name 이 추가되었다. 이것이 내가 이 유형의 조인을 변환 조인이라고 부르는 이유이다. 이 경우 mutate() 와 R 의 base 서브세팅 작업을 사용하여 같은 위치에 도달할 수 있다.

flights2 %>%
  select(-origin, -dest) %>% 
  mutate(name = airlines$name[match(carrier, airlines$carrier)])

## # A tibble: 336,776 x 7
##    year month   day  hour tailnum carrier name                  
##   <int> <int> <int> <dbl> <chr>   <chr>   <chr>                 
## 1  2013     1     1     5 N14228  UA      United Air Lines Inc. 
## 2  2013     1     1     5 N24211  UA      United Air Lines Inc. 
## 3  2013     1     1     5 N619AA  AA      American Airlines Inc.
## # ... with 336,773 more rows
…
     1, "x1",
     2, "x2",
     2, "x3",
     3, "x4"
)
y <- tribble(
  ~key, ~val_y,
     1, "y1",
     2, "y2",
     2, "y3",
     3, "y4"
)
left_join(x, y, by = "key")

## # A tibble: 6 x 3
##     key val_x val_y
##   <dbl> <chr> <chr>
## 1     1 x1    y1   
## 2     2 x2    y2   
## 3     2 x2    y3   
## # ... with 3 more rows

6.4.5 키열 정의하기

지금까지 테이블 쌍은 항상 하나의 변수에 의해 조인되었으며 그 변수는 두 테이블에서 같은 이름을 가졌었다. 그 제약은 by = "key" 로 코드화되었다. by 에 다른 값을 사용하여 다른 방법으로 테이블을 연결할 수 있다.

기본값 by = NULL 을 사용하면 두 테이블에 있는 모든 변수를 사용하며 이는 자연 조인(natural join)이라 부른다. 예를 들어 flights 및 weather 테이블은 공통 변수인 year, month, day, hour, origin 으로 매치된다.

flights2 %>% 
  left_join(weather)

## Joining, by = c("year", "month", "day", "hour", "origin")

## # A tibble: 336,776 x 18
##    year month   day  hour origin dest  tailnum carrier  temp  dewp humid
##   <int> <int> <int> <dbl> <chr>  <chr> <chr>   <chr>   <dbl> <dbl> <dbl>
## 1  2013     1     1     5 EWR    IAH   N14228  UA       39.0  28.0  64.4
## 2  2013     1     1     5 LGA    IAH   N24211  UA       39.9  25.0  54.8
## 3  2013     1     1     5 JFK    MIA   N619AA  AA       39.0  27.0  61.6
## # ... with 336,773 more rows, and 7 more variables: wind_dir <dbl>,
## #   wind_speed <dbl>, wind_gust <dbl>, precip <dbl>, pressure <dbl>,
## #   visib <dbl>, time_hour <dttm>

문자형 벡터 by = "x" . 이것은 자연 결합과 같지만 일부 공통 변수만 사용한다. 예를 들어 flights 와 planes 에는 year 변수가 있지만 서로 다른 의미이므로 tailnum 으로만 조인하고 싶다.

flights2 %>% 
  left_join(planes, by = "tailnum")

## # A tibble: 336,776 x 16
##   year.x month   day  hour origin dest  tailnum carrier year.y type 
##    <int> <int> <int> <dbl> <chr>  <chr> <chr>   <chr>    <int> <chr>
## 1   2013     1     1     5 EWR    IAH   N14228  UA        1999 Fixe~
## 2   2013     1     1     5 LGA    IAH   N24211  UA        1998 Fixe~
## 3   2013     1     1     5 JFK    MIA   N619AA  AA        1990 Fixe~
## # ... with 336,773 more rows, and 6 more variables: manufacturer <chr>,
## #   model <chr>, engines <int>, seats <int>, speed <int>, engine <chr>

year 변수 (두 입력 데이터프레임 모두에 나타나지만 같지 않도록 제한시킴)는 접미사가 붙어서 출력에서 헷갈리지 않게 된 것을 확인하라.

이름있는 문자 벡터, by = c("a" = "b") . 테이블 x 의 변수 a 와 테이블 y 의 변수 b 를 매칭시킨다. x 의 변수가 출력에 사용된다.

예를 들어, 지도를 그리려면 flights 데이터를 각 공항의 위치(lat 과 lon , 위도와 경도)가 포함된 airports 데이터와 결합해야 한다. 각 항공편에는 출발 공항(origin)과 도착 공항(dest)이 있으므로 어떤 것에 조인할지 지정해야 한다.

flights2 %>% 
  left_join(airports, c("dest" = "faa"))

## # A tibble: 336,776 x 15
##    year month   day  hour origin dest  tailnum carrier name    lat   lon   alt
##   <int> <int> <int> <dbl> <chr>  <chr> <chr>   <chr>   <chr> <dbl> <dbl> <dbl>
## 1  2013     1     1     5 EWR    IAH   N14228  UA      Geor~  30.0 -95.3    97
## 2  2013     1     1     5 LGA    IAH   N24211  UA      Geor~  30.0 -95.3    97
## 3  2013     1     1     5 JFK    MIA   N619AA  AA      Miam~  25.8 -80.3     8
## # ... with 336,773 more rows, and 3 more variables: tz <dbl>, dst <chr>,
## #   tzone <chr>

flights2 %>% 
  left_join(airports, c("origin" = "faa"))

## # A tibble: 336,776 x 15
##    year month   day  hour origin dest  tailnum carrier name    lat   lon   alt
##   <int> <int> <int> <dbl> <chr>  <chr> <chr>   <chr>   <chr> <dbl> <dbl> <dbl>
## 1  2013     1     1     5 EWR    IAH   N14228  UA      Newa~  40.7 -74.2    18
## 2  2013     1     1     5 LGA    IAH   N24211  UA      La G~  40.8 -73.9    22
## 3  2013     1     1     5 JFK    MIA   N619AA  AA      John~  40.6 -73.8    13
## # ... with 336,773 more rows, and 3 more variables: tz <dbl>, dst <chr>,
## #   tzone <chr>
…
