1.4 파일 파싱하기 | tidyverse를 이용한 데이터 관리
…
## Warning: 1000 parsing failures.
##  row col           expected     actual                                                             file
## 1001   y 1/0/T/F/TRUE/FALSE 2015-01-16 'C:/Program Files/R/R-4.0.3/library/readr/extdata/challenge.csv'
## 1002   y 1/0/T/F/TRUE/FALSE 2018-05-18 'C:/Program Files/R/R-4.0.3/library/readr/extdata/challenge.csv'
## 1003   y 1/0/T/F/TRUE/FALSE 2015-09-05 'C:/Program Files/R/R-4.0.3/library/readr/extdata/challenge.csv'
## 1004   y 1/0/T/F/TRUE/FALSE 2012-11-28 'C:/Program Files/R/R-4.0.3/library/readr/extdata/challenge.csv'
## 1005   y 1/0/T/F/TRUE/FALSE 2020-01-13 'C:/Program Files/R/R-4.0.3/library/readr/extdata/challenge.csv'
## .... ... .................. .......... ................................................................
## See problems(...) for more details.

problems(challenge)

## # A tibble: 1,000 x 5
##      row col   expected        actual   file                                    
##    <int> <chr> <chr>           <chr>    <chr>                                   
##  1  1001 y     1/0/T/F/TRUE/F~ 2015-01~ 'C:/Program Files/R/R-4.0.3/library/rea~
##  2  1002 y     1/0/T/F/TRUE/F~ 2018-05~ 'C:/Program Files/R/R-4.0.3/library/rea~
##  3  1003 y     1/0/T/F/TRUE/F~ 2015-09~ 'C:/Program Files/R/R-4.0.3/library/rea~
##  4  1004 y     1/0/T/F/TRUE/F~ 2012-11~ 'C:/Program Files/R/R-4.0.3/library/rea~
##  5  1005 y     1/0/T/F/TRUE/F~ 2020-01~ 'C:/Program Files/R/R-4.0.3/library/rea~
##  6  1006 y     1/0/T/F/TRUE/F~ 2016-04~ 'C:/Program Files/R/R-4.0.3/library/rea~
##  7  1007 y     1/0/T/F/TRUE/F~ 2011-05~ 'C:/Program Files/R/R-4.0.3/library/rea~
##  8  1008 y     1/0/T/F/TRUE/F~ 2020-07~ 'C:/Program Files/R/R-4.0.3/library/rea~
##  9  1009 y     1/0/T/F/TRUE/F~ 2011-04~ 'C:/Program Files/R/R-4.0.3/library/rea~
## 10  1010 y     1/0/T/F/TRUE/F~ 2010-05~ 'C:/Program Files/R/R-4.0.3/library/rea~
## # ... with 990 more rows
…
