13.6 누적 영역 그래프 | Data Visualization with R
…
longer<-pivot_longer(trade_stat_year, 
                     cols = -1, 
                     names_pattern = "(......).(.....)", 
                     names_to = c("Type", "Category")) %>% 
     mutate(Category = ifelse(Category == "ratio", "Ratio", "Amount"))
longer

## # A tibble: 32 x 4
##    Year  Type   Category value
##    <chr> <chr>  <chr>    <dbl>
##  1 2007  Export Amount   371  
##  2 2007  Import Amount   357  
##  3 2007  Export Ratio     51  
##  4 2007  Import Ratio     49  
##  5 2008  Export Amount   422  
##  6 2008  Import Amount   435  
##  7 2008  Export Ratio     49.2
##  8 2008  Import Ratio     50.8
##  9 2009  Export Amount   364  
## 10 2009  Import Amount   323  
## # ... with 22 more rows
…
